…
[298] "Roey-298-NC10-16_S106"  "Roey-299-NC10-17_S107"  "Roey-300-NC10-18_S108" 
[301] "Roey-301-NC12-4_S109"   "Roey-302-NC12-5_S110"   "Roey-303-NC12-6_S111"  
[304] "Roey-304-NC12-7_S112"   "Roey-305-NC12-8_S113"   "Roey-306-NC12-9_S114"  
[307] "Roey-307-NC12-10_S115"  "Roey-308-NC12-11_S116"  "Roey-309-NC12-12_S117" 
[310] "Roey-310-NC12-13_S118"  "Roey-311-NC12-14_S119"  "Roey-312-NC12-15_S120" 
[313] "Roey-313-NC12-16_S121"  "Roey-314-NC12-17_S122"  "Roey-315-NC12-18_S123" 
[316] "Roey-316-Mock-NC_S124"  "Roey-317-SIP-1-NC_S125" "Roey-318-SIP-2-NC_S126"
[319] "Roey-319-28X-NC_S127"   "Roey-320-30X-NC_S128"   "Roey-321-32X-NC_S129"  
Scale for 'y' is already present. Adding another scale for 'y', which will
replace the existing scale.
Scale for 'y' is already present. Adding another scale for 'y', which will
replace the existing scale.
null device 
          1 
# A tibble: 321 x 4
   sample_name        file_name                               reads.in reads.out
   <chr>              <chr>                                      <dbl>     <dbl>
 1 Roey-001-AP3-3_S1… Roey-001-AP3-3_S134_L001_R1_001_noPrim…    14975     14681
 2 Roey-002-AP3-4_S1… Roey-002-AP3-4_S135_L001_R1_001_noPrim…    13411     13051
 3 Roey-003-AP3-5_S1… Roey-003-AP3-5_S136_L001_R1_001_noPrim…    24724     24248
 4 Roey-004-AP3-6_S1… Roey-004-AP3-6_S137_L001_R1_001_noPrim…    26743     26240
 5 Roey-005-AP3-7_S1… Roey-005-AP3-7_S138_L001_R1_001_noPrim…    24061     23580
 6 Roey-006-AP3-8_S1… Roey-006-AP3-8_S139_L001_R1_001_noPrim…    27975     27463
 7 Roey-007-AP3-9_S1… Roey-007-AP3-9_S140_L001_R1_001_noPrim…    31538     30979
 8 Roey-008-AP3-10_S… Roey-008-AP3-10_S141_L001_R1_001_noPri…    27521     27037
 9 Roey-009-AP3-11_S… Roey-009-AP3-11_S142_L001_R1_001_noPri…    32436     31870
10 Roey-010-AP3-12_S… Roey-010-AP3-12_S143_L001_R1_001_noPri…    29822     29320
# … with 311 more rows
…
